ULA_tb.vcd
$date
  Fri May 20 17:55:53 2022
$end
$version
  GHDL v0
$end
$timescale
  1 fs
$end
$scope module standard $end
$upscope $end
$scope module std_logic_1164 $end
$upscope $end
$scope module numeric_std $end
$upscope $end
$scope module ula_tb $end
$var reg 16 ! ula_in_a[15:0] $end
$var reg 16 " ula_in_b[15:0] $end
$var reg 16 # ula_out[15:0] $end
$var reg 1 $ ula_flag $end
$var reg 2 % sel_op[1:0] $end
$scope module ula0 $end
$var reg 16 & ula_in_a[15:0] $end
$var reg 16 ' ula_in_b[15:0] $end
$var reg 16 ( ula_out[15:0] $end
$var reg 1 ) ula_flag $end
$var reg 2 * sel_op[1:0] $end
$upscope $end
$upscope $end
$enddefinitions $end
#0
b0000000000000010 !
b0000000000000001 "
b0000000000000011 #
0$
b00 %
b0000000000000010 &
b0000000000000001 '
b0000000000000011 (
0)
b00 *
#50000000
b0000000000000100 !
b1111111111111110 "
b0000000000000010 #
b0000000000000100 &
b1111111111111110 '
b0000000000000010 (
#100000000
b0000000000000001 !
b1111111111111111 #
b0000000000000001 &
b1111111111111111 (
#150000000
b0000000000000010 !
b0000000000000001 "
b0000000000000001 #
b01 %
b0000000000000010 &
b0000000000000001 '
b0000000000000001 (
b01 *
#200000000
b0000000000000100 !
b1111111111111110 "
b0000000000000110 #
b0000000000000100 &
b1111111111111110 '
b0000000000000110 (
#250000000
b0000000000000001 !
b0000000000000100 "
b1111111111111101 #
b0000000000000001 &
b0000000000000100 '
b1111111111111101 (
#300000000
b1111111111111111 !
b1111111111111011 #
b1111111111111111 &
b1111111111111011 (
#350000000
b1001000100100100 "
b1001000100100100 #
b10 %
b1001000100100100 '
b1001000100100100 (
b10 *
#400000000
b0000000000000010 !
b0000000000000001 "
b0000000000000000 #
1$
b11 %
b0000000000000010 &
b0000000000000001 '
b0000000000000000 (
1)
b11 *
#450000000
b0000000001000000 !
b0000000010000000 "
0$
b0000000001000000 &
b0000000010000000 '
0)
#500000000
b1111111111111110 !
b1111111111111111 "
b1111111111111110 &
b1111111111111111 '
#550000000
b1111111111111111 !
b1111111111111110 "
1$
b1111111111111111 &
b1111111111111110 '
1)
#600000000
b0000000000000010 !
b0000000000000010 "
0$
b0000000000000010 &
b0000000000000010 '
0)
#650000000
b1000000000000010 !
b1000000000000010 &
#700000000
b0000000000000010 !
b1000000000000010 "
1$
b0000000000000010 &
b1000000000000010 '
1)
